Machine Learning in Economics
…
# instantiate the engine
tree_spec <- decision_tree() %>% 
  set_engine("rpart") %>% 
  set_mode("classification")

# fit the model to the training data
breast_cancer_fit <- tree_spec %>% 
  fit(formula = class ~ clump + cell_size + cell_shape + adhesion + epithlial + bare_nuclei + chromatin + normal_nucleoli + mitoses, data = breast_cancer_train)

# predict y values in the test data
pred <- predict(breast_cancer_fit, new_data = breast_cancer_test, type = "class") %>% 
  mutate(truth = breast_cancer_test$class)
pred

# A tibble: 206 × 2
   .pred_class truth
   <fct>       <fct>
 1 4           2    
 2 4           2    
 3 2           2    
 4 2           2    
 5 4           4    
 6 4           4    
 7 2           2    
 8 2           2    
 9 4           4    
10 2           2    
# ℹ 196 more rows
…
